dplyr – Gabriel Orso
…
Pipes

Funções

filter()

A função filter() é utilizada para filtrar linhas que satisfaçam uma determinada condição.

dados <- as_tibble(dados)

dados %>% filter(par == 6)

# A tibble: 36 × 15
     par   ind fam       cient autor verna   cap    ht    hc    qf    qc estrato
   <int> <int> <chr>     <chr> <chr> <chr> <dbl> <dbl> <dbl> <int> <int> <chr>  
 1     6     1 Euphorbi… Alch… (Spr… Tanh…    63    11   6       1     2 dossel 
 2     6     2 Bignonia… Jaca… Cham. Caro…    28     5   3       2     1 sub    
 3     6     3 Primulac… Myrs… (Sw.… Capo…    27     9   5       1     1 dossel 
 4     6     4 Euphorbi… Alch… (Spr… Tanh…    21     7   5       1     2 inter  
 5     6     5 Melastom… Pler… DC.   Jaca…    21     7   4.5     1     1 inter  
 6     6     6 Lauraceae Ocot… Mez   Cane…    70    12   1       3     1 dossel 
 7     6     6 Lauraceae Ocot… Mez   Cane…    67    12   1       3     1 dossel 
 8     6     7 Meliaceae Guar… Vahl  Caf�…    18     6   2       3     1 sub    
 9     6     8 Calophyl… Calo… Camb… Guan…   212    17   8       1     1 dossel 
10     6     9 Myrtaceae Myrc… Kiae… Camb…    25     6   2       2     2 dub    
# ℹ 26 more rows
# ℹ 3 more variables: obs <chr>, dap <dbl>, g <dbl>

dados %>% filter(cap >= 140)

# A tibble: 23 × 15
     par   ind fam       cient autor verna   cap    ht    hc    qf    qc estrato
   <int> <int> <chr>     <chr> <chr> <chr> <dbl> <dbl> <dbl> <int> <int> <chr>  
 1     3    21 "Calophy… Calo… "Cam… "Gua…   199    25    10     1     1 "emerg"
 2     3    29 "Calophy… Calo… "Cam… "Gua…   200    24     8     1     1 "emerg"
 3     6     8 "Calophy… Calo… "Cam… "Gua…   212    17     8     1     1 "dosse…
 4     6    13 "Calophy… Calo… "Cam… "Gua…   141    17    12     1     1 "dosse…
 5    10    22 "Laurace… Nect… "Nee… "Can…   148    17    10     2     3 "dosse…
 6    10    25 ""        Morta ""    ""      142    NA    NA    NA    NA ""     
 7    12    11 "Sapinda… Mata… "Rad… "Mat…   163    16     2     2     1 "dosse…
 8    13    22 "Calophy… Calo… "Cam… "Gua…   229    17    10     1     1 "emerg"
 9    14     4 "Euphorb… Alch… "(Sp… "Tan…   165    19     7     2     1 "emerg"
10    14    19 "Euphorb… Alch… "(Sp… "Tan…   141    20     7     2     1 "emerg"
# ℹ 13 more rows
# ℹ 3 more variables: obs <chr>, dap <dbl>, g <dbl>
…
Filter

Filtro OU ‘|’ - União de condições

O operador ‘|’ representa união entre condições, i.e., mantém as linhas que satisfaçam PELO MENOS uma das condições.

print(df)

# A tibble: 23 × 15
     par   ind fam       cient autor verna   cap    ht    hc    qf    qc estrato
   <int> <int> <chr>     <chr> <chr> <chr> <dbl> <dbl> <dbl> <int> <int> <chr>  
 1     3    21 "Calophy… Calo… "Cam… "Gua…   199    25    10     1     1 "emerg"
 2     3    29 "Calophy… Calo… "Cam… "Gua…   200    24     8     1     1 "emerg"
 3     6     8 "Calophy… Calo… "Cam… "Gua…   212    17     8     1     1 "dosse…
 4     6    13 "Calophy… Calo… "Cam… "Gua…   141    17    12     1     1 "dosse…
 5    10    22 "Laurace… Nect… "Nee… "Can…   148    17    10     2     3 "dosse…
 6    10    25 ""        Morta ""    ""      142    NA    NA    NA    NA ""     
 7    12    11 "Sapinda… Mata… "Rad… "Mat…   163    16     2     2     1 "dosse…
 8    13    22 "Calophy… Calo… "Cam… "Gua…   229    17    10     1     1 "emerg"
 9    14     4 "Euphorb… Alch… "(Sp… "Tan…   165    19     7     2     1 "emerg"
10    14    19 "Euphorb… Alch… "(Sp… "Tan…   141    20     7     2     1 "emerg"
# ℹ 13 more rows
# ℹ 3 more variables: obs <chr>, dap <dbl>, g <dbl>
…
Filter E

select()

A função select() é utilizada para selecionar ou remover colunas.

# Seleciona apenas as colunas 'cap' e 'ht'. Note que não é preciso escrever os nomes das colunas entre aspas.
dados %>% select(cap, ht)

# A tibble: 762 × 2
     cap    ht
   <dbl> <dbl>
 1    82  17  
 2    18   5.5
 3    20   6  
 4    57  10  
 5    70  12  
 6    17   8  
 7    44  12  
 8    33  10  
 9    31  10  
10    17   6  
# ℹ 752 more rows
…
Select

Para remover uma coluan do data frame, usa-se o sinal de menos ‘-’ para remover a coluna desejada.

dados %>% select(-par)

# A tibble: 762 × 14
     ind fam       cient autor verna   cap    ht    hc    qf    qc estrato obs  
   <int> <chr>     <chr> <chr> <chr> <dbl> <dbl> <dbl> <int> <int> <chr>   <chr>
 1     1 Euphorbi… Alch… (Spr… Tanh…    82  17       6     2     1 dossel  ""   
 2     2 Meliaceae Guar… Vahl  Caf�…    18   5.5     3     1     1 sub     ""   
 3     3 Lauraceae Ocot… (Nee… Cane…    20   6       4     2     1 sub     ""   
 4     4 Elaeocar… Sloa… (Aub… Uruc…    57  10       7     3     2 inter   ""   
 5     5 Aquifoli… Ilex… Reis… Ca�na    70  12       7     3     2 dossel  ""   
 6     6 Myrtaceae Myrc… (D.L… Camb…    17   8       3     3     3 sub     ""   
 7     7 Calophyl… Calo… Camb… Guan…    44  12       7     3     2 inter   ""   
 8     8 Elaeocar… Sloa… (Aub… Uruc…    33  10       6     2     1 inter   "bif"
 9     8 Elaeocar… Sloa… (Aub… Uruc…    31  10       6     2     1 inter   "bif"
10     9 Myrtaceae Myrc… (O.B… Guam…    17   6       3     3     3 sub     "bif"
# ℹ 752 more rows
# ℹ 2 more variables: dap <dbl>, g <dbl>

# Para remover mais de uma variável (coluna), basta concatenar as variáveis desejadas em um vetor.
dados %>% select(-c(par, fam, cient, autor, verna))

# A tibble: 762 × 10
     ind   cap    ht    hc    qf    qc estrato obs     dap       g
   <int> <dbl> <dbl> <dbl> <int> <int> <chr>   <chr> <dbl>   <dbl>
 1     1    82  17       6     2     1 dossel  ""    26.1  0.0535 
 2     2    18   5.5     3     1     1 sub     ""     5.73 0.00258
 3     3    20   6       4     2     1 sub     ""     6.37 0.00318
 4     4    57  10       7     3     2 inter   ""    18.1  0.0259 
 5     5    70  12       7     3     2 dossel  ""    22.3  0.0390 
 6     6    17   8       3     3     3 sub     ""     5.41 0.00230
 7     7    44  12       7     3     2 inter   ""    14.0  0.0154 
 8     8    33  10       6     2     1 inter   "bif" 10.5  0.00867
 9     8    31  10       6     2     1 inter   "bif"  9.87 0.00765
10     9    17   6       3     3     3 sub     "bif"  5.41 0.00230
# ℹ 752 more rows
…
summarise() resume cada grupo em uma menor quantidade de linhas por meio de uma função desejada, por exemplo a função média ou soma. A função aplicada deve ser capaz de receber um vetor e retornar o resultado de alguma operação aplicada sobre esse vetor. Caso o data frame não tenha grupos (sem utilização da função group_by()), o resultado será uma única linha resumindo a informação de todas as observações. summarize() e summarise() são sinônimos.

# Sem a criação de grupos, a função mean() retornará a média de todas as observações
dados %>% summarise(media_dap = mean(dap))

# A tibble: 1 × 1
  media_dap
      <dbl>
1      14.5

# Com a definição de grupo por família botânica, a função retornará a operação por grupo. Neste caso por família botânica.
dados %>% group_by(fam) %>% summarise(media_ht = mean(ht))

# A tibble: 41 × 2
   fam            media_ht
   <chr>             <dbl>
 1 Anacardiaceae     13.4 
 2 Annonaceae         9.8 
 3 Aquifoliaceae     10.2 
 4 Araliaceae        11.5 
 5 Arecaceae          5.51
 6 Bignoniaceae       5   
 7 Boraginaceae       8.2 
 8 Burseraceae       14.2 
 9 Calophyllaceae    16.1 
10 Celastraceae       9.75
# ℹ 31 more rows
…
